…
Below we clean the data, creating separate variables for year, month,
and day and converting `tmax` and `tmin` to numeric. We find that 0 is
the most commonly observed value for snowfall. This is because most days
of the year, it does not snow at all in NY. The second most commonly
observed value is `NA`, indicating missingness. Other common values are
13, 25, and 51, suggesting that snowfall is originally recorded in
fractions of an inch and converted to mm.

``` r
ny_noaa %>% 
  count(snow) %>%
  arrange(desc(n))
```

    ## # A tibble: 282 × 2
    ##     snow       n
    ##    <int>   <int>
    ##  1     0 2008508
    ##  2    NA  381221
    ##  3    25   31022
    ##  4    13   23095
    ##  5    51   18274
    ##  6    76   10173
    ##  7     8    9962
    ##  8     5    9748
    ##  9    38    9197
    ## 10     3    8790
    ## # ℹ 272 more rows
…
